<svg xmlns="http://www.w3.org/2000/svg" width="41" height="41">
  <path d="M20.5 0A20.5 20.5 0 1 0 41 20.5 20.5 20.5 0 0 0 20.5 0zm-5.69 27.964H11.1L6.5 13.277h3.04l3.43 11.512 3.43-11.512h3.02zm17.77 0h-2.36l-6.14-9.685v9.685h-2.95V13.277h2.36l6.15 9.686v-9.686h2.94v14.687z" fill="#fff" fill-rule="evenodd"/>
</svg>
