<svg xmlns="http://www.w3.org/2000/svg" width="488" height="102">
    <defs>
        <filter id="a" width="488" height="102" x="0" y="0" filterUnits="userSpaceOnUse">
            <feOffset dy="4" in="SourceAlpha"/>
            <feGaussianBlur result="blurOut" stdDeviation="2.449"/>
            <feFlood flood-color="#000" result="floodOut"/>
            <feComposite in="floodOut" in2="blurOut" operator="atop"/>
            <feComponentTransfer>
                <feFuncA slope=".19" type="linear"/>
            </feComponentTransfer>
            <feMerge>
                <feMergeNode/>
                <feMergeNode in="SourceGraphic"/>
            </feMerge>
        </filter>
    </defs>
    <path fill="#F7F6F6" fill-rule="evenodd" d="M456.684 17.578v72.841h-17.76V17.578h-24.359V1.619h66.599v15.959h-24.48zm-103.917 69.6c-4.321-2.559-6.481-7.799-6.481-15.719v-49.56c0-7.2 1.98-12.38 5.94-15.54 3.96-3.16 8.74-4.74 14.34-4.74 12.24 0 25.038.521 38.4 1.56v14.879h-33.12c-5.201 0-7.8 2.441-7.8 7.32v12.841l35.16.96v14.04l-35.16.959v12.24c0 5.281 2.479 7.92 7.44 7.92h33.48v14.88c-10.641 1.201-23 1.801-37.08 1.801-5.76 0-10.8-1.279-15.119-3.841zm-67.92-1.68c-3.44-3.278-5.16-8.64-5.16-16.079v-67.8h17.76v64.919c0 5.202 2.641 7.8 7.92 7.8h28.081v16.081h-32.76c-7.121 0-12.402-1.639-15.841-4.921zm-66.598 0c-3.441-3.278-5.16-8.64-5.16-16.079v-67.8h17.761v64.919c0 5.202 2.639 7.8 7.919 7.8h28.08v16.081h-32.76c-7.121 0-12.401-1.639-15.84-4.921zm-41.4-13.679h-30.24l-5.52 18.6h-18.24l27.84-88.8h22.439l27.841 88.8H182.49l-5.641-18.6zM161.73 16.858l-10.921 39.001h21.84L161.73 16.858zM81.208 90.419l-18-62.64-18.12 62.64H26.969L5.728 1.619h18.361l14.279 62.64 16.68-62.64h16.32l16.56 62.64 14.28-62.64h18.36l-21.24 88.8h-18.12z" filter="url(#a)" opacity=".051"/>
</svg>
