<svg xmlns="http://www.w3.org/2000/svg" width="64" height="51">
    <path fill="#F9CD3D" fill-rule="evenodd" d="M56.533 36.124v7.438h-7.466v7.437H0V14.874h7.466V7.437h7.467V-.001H64v36.125h-7.467zM7.466 17H2.133v31.875h44.8v-5.313H7.466V17zm7.467 13.812V9.562H9.6v31.875h44.8v-5.313H14.933v-5.312zM61.866 2.124H17.067v31.875h44.799V2.124zm-48 36.126a1.064 1.064 0 0 1-1.066-1.063c0-.587.477-1.063 1.066-1.063.59 0 1.067.476 1.067 1.063s-.477 1.063-1.067 1.063zm0-6.375a1.064 1.064 0 0 1-1.066-1.063c0-.587.477-1.063 1.066-1.063.59 0 1.067.476 1.067 1.063s-.477 1.063-1.067 1.063zm0-6.375a1.064 1.064 0 0 1-1.066-1.063c0-.587.477-1.063 1.066-1.063.59 0 1.067.476 1.067 1.063s-.477 1.063-1.067 1.063zm0-6.376a1.064 1.064 0 0 1-1.066-1.063c0-.586.477-1.061 1.066-1.061.59 0 1.067.475 1.067 1.061 0 .588-.477 1.063-1.067 1.063zm0-6.375a1.064 1.064 0 0 1-1.066-1.062c0-.587.477-1.062 1.066-1.062.59 0 1.067.475 1.067 1.062 0 .587-.477 1.062-1.067 1.062zm-3.2 1.063c.589 0 1.067.476 1.067 1.062 0 .587-.478 1.063-1.067 1.063A1.064 1.064 0 0 1 9.6 14.874c0-.586.477-1.062 1.066-1.062zm0 6.375c.589 0 1.067.476 1.067 1.062 0 .587-.478 1.063-1.067 1.063A1.064 1.064 0 0 1 9.6 21.249c0-.586.477-1.062 1.066-1.062zm0 6.375c.589 0 1.067.475 1.067 1.062 0 .587-.478 1.063-1.067 1.063a1.064 1.064 0 0 1 0-2.125zm0 6.375c.589 0 1.067.475 1.067 1.062 0 .588-.478 1.063-1.067 1.063a1.064 1.064 0 1 1 0-2.125zm0 6.374c.589 0 1.067.476 1.067 1.063s-.478 1.063-1.067 1.063A1.064 1.064 0 0 1 9.6 40.374c0-.587.477-1.063 1.066-1.063zM16 40.374c0-.587.477-1.063 1.067-1.063.588 0 1.066.476 1.066 1.063s-.478 1.063-1.066 1.063c-.59 0-1.067-.476-1.067-1.063zm6.4 0c0-.587.477-1.063 1.066-1.063.59 0 1.067.476 1.067 1.063s-.477 1.063-1.067 1.063a1.064 1.064 0 0 1-1.066-1.063zm6.4 0c0-.587.477-1.063 1.066-1.063.59 0 1.067.476 1.067 1.063s-.477 1.063-1.067 1.063a1.064 1.064 0 0 1-1.066-1.063zm6.4 0c0-.587.477-1.063 1.066-1.063.589 0 1.067.476 1.067 1.063s-.478 1.063-1.067 1.063a1.064 1.064 0 0 1-1.066-1.063zm6.4 0c0-.587.477-1.063 1.066-1.063.589 0 1.067.476 1.067 1.063s-.478 1.063-1.067 1.063a1.064 1.064 0 0 1-1.066-1.063zm6.4 0c0-.587.477-1.063 1.067-1.063.588 0 1.066.476 1.066 1.063s-.478 1.063-1.066 1.063c-.59 0-1.067-.476-1.067-1.063zm5.333-3.187c0 .587-.478 1.063-1.067 1.063a1.064 1.064 0 0 1-1.066-1.063c0-.587.477-1.063 1.066-1.063.589 0 1.067.476 1.067 1.063zm-6.4 0c0 .587-.477 1.063-1.067 1.063a1.064 1.064 0 0 1-1.066-1.063c0-.587.477-1.063 1.066-1.063.59 0 1.067.476 1.067 1.063zm-6.4 0c0 .587-.477 1.063-1.067 1.063a1.064 1.064 0 0 1-1.066-1.063c0-.587.477-1.063 1.066-1.063.59 0 1.067.476 1.067 1.063zm-6.4 0c0 .587-.478 1.063-1.066 1.063-.59 0-1.067-.476-1.067-1.063s.477-1.063 1.067-1.063c.588 0 1.066.476 1.066 1.063zm-6.4 0c0 .587-.478 1.063-1.067 1.063a1.064 1.064 0 0 1-1.066-1.063c0-.587.477-1.063 1.066-1.063.589 0 1.067.476 1.067 1.063zm-6.4 0c0 .587-.478 1.063-1.067 1.063a1.064 1.064 0 0 1-1.066-1.063c0-.587.477-1.063 1.066-1.063.589 0 1.067.476 1.067 1.063z"/>
</svg>
